\relax 
\@writefile{toc}{\contentsline {section}{\numberline {1}Introduction}{2}\protected@file@percent }
\@writefile{toc}{\contentsline {section}{\numberline {2}Data Collection and Overview}{2}\protected@file@percent }
\@writefile{toc}{\contentsline {section}{\numberline {3}Data Cleaning/ Feature Engineering}{3}\protected@file@percent }
\@writefile{toc}{\contentsline {section}{\numberline {4}Robustness}{4}\protected@file@percent }
\@writefile{toc}{\contentsline {section}{\numberline {5}Which features are best at predicting the amount of Pell grant funds per student a school will receive?}{4}\protected@file@percent }
\@writefile{toc}{\contentsline {subsection}{\numberline {5.1}Methods}{4}\protected@file@percent }
\@writefile{toc}{\contentsline {subsection}{\numberline {5.2}Results and Conclusion}{6}\protected@file@percent }
\@writefile{toc}{\contentsline {section}{\numberline {6}Is there a relation between for-profit schools and racial and economic factors?}{6}\protected@file@percent }
\@writefile{toc}{\contentsline {subsection}{\numberline {6.1}Models}{6}\protected@file@percent }
\@writefile{toc}{\contentsline {section}{\numberline {7}What factors best predict the mobility rate for a given college?}{8}\protected@file@percent }
\@writefile{toc}{\contentsline {subsection}{\numberline {7.1}Explanation of Variables}{8}\protected@file@percent }
\@writefile{toc}{\contentsline {subsection}{\numberline {7.2}Methods Used}{8}\protected@file@percent }
\@writefile{toc}{\contentsline {subsection}{\numberline {7.3}Visualizations}{8}\protected@file@percent }
\@writefile{toc}{\contentsline {subsection}{\numberline {7.4}Results and Conclusion}{9}\protected@file@percent }
\@writefile{toc}{\contentsline {subsection}{\numberline {7.5}Ethics}{9}\protected@file@percent }
